walter
…
demographics

demo <- walter_raw %>%
  select(pin, country, sex, age, relstat, relstat2)

demo %>%
  count(country)

## # A tibble: 45 x 2
##    country        n
##    <chr>      <int>
##  1 Algeria      614
##  2 Australia    508
##  3 Austria      197
##  4 Belgium      419
##  5 Brazil       296
##  6 Bulgaria     115
##  7 Chile        203
##  8 China        396
##  9 Colombia     156
## 10 Costa Rica   148
## # ... with 35 more rows
…
## convert some variables that aren't next to each other
library(palmerpenguins)

## Warning: package 'palmerpenguins' was built under R version 4.0.3

penguins %>%
  mutate(across(species:island, as.character)) # we can splice

## # A tibble: 344 x 8
##    species island    bill_length_mm bill_depth_mm flipper_length_mm body_mass_g
##    <chr>   <chr>              <dbl>         <dbl>             <int>       <int>
##  1 Adelie  Torgersen           39.1          18.7               181        3750
##  2 Adelie  Torgersen           39.5          17.4               186        3800
##  3 Adelie  Torgersen           40.3          18                 195        3250
##  4 Adelie  Torgersen           NA            NA                  NA          NA
##  5 Adelie  Torgersen           36.7          19.3               193        3450
##  6 Adelie  Torgersen           39.3          20.6               190        3650
##  7 Adelie  Torgersen           38.9          17.8               181        3625
##  8 Adelie  Torgersen           39.2          19.6               195        4675
##  9 Adelie  Torgersen           34.1          18.1               193        3475
## 10 Adelie  Torgersen           42            20.2               190        4250
## # ... with 334 more rows, and 2 more variables: sex <fct>, year <int>

penguins %>%
  mutate(across(c(1,2), as.character)) # or also works to specify the number of the columns like this 

## # A tibble: 344 x 8
##    species island    bill_length_mm bill_depth_mm flipper_length_mm body_mass_g
##    <chr>   <chr>              <dbl>         <dbl>             <int>       <int>
##  1 Adelie  Torgersen           39.1          18.7               181        3750
##  2 Adelie  Torgersen           39.5          17.4               186        3800
##  3 Adelie  Torgersen           40.3          18                 195        3250
##  4 Adelie  Torgersen           NA            NA                  NA          NA
##  5 Adelie  Torgersen           36.7          19.3               193        3450
##  6 Adelie  Torgersen           39.3          20.6               190        3650
##  7 Adelie  Torgersen           38.9          17.8               181        3625
##  8 Adelie  Torgersen           39.2          19.6               195        4675
##  9 Adelie  Torgersen           34.1          18.1               193        3475
## 10 Adelie  Torgersen           42            20.2               190        4250
## # ... with 334 more rows, and 2 more variables: sex <fct>, year <int>

sdmp %>%
  mutate(across(c(3,4,6), as.factor)) # example using your sdmp variable to change the 3rd, 4th, and 6th columns to a factor

## # A tibble: 14,399 x 35
##      PIN   CIN continent country city  countrycode partnum partcode sample   sex
##    <dbl> <dbl> <fct>     <fct>   <chr> <fct>       <chr>   <chr>     <dbl> <dbl>
##  1 12506     1 Africa    Algeria Algi~ 24          85      A85           1     1
##  2  1997     1 Africa    Algeria Algi~ 24          72      A72           1     1
##  3  1448     1 Africa    Algeria Setif 24          277     SB277         2     0
##  4 10625     1 Africa    Algeria Setif 24          229     S229          1     1
##  5  6106     1 Africa    Algeria Algi~ 24          23      A23           1     1
##  6  4078     1 Africa    Algeria Algi~ 24          82      A82           1     1
##  7  3034     1 Africa    Algeria Algi~ 24          86      A86           1     1
##  8  5281     1 Africa    Algeria Algi~ 24          135     AB135         2     0
##  9 13555     1 Africa    Algeria Setif 24          214     S214          1     1
## 10  8726     1 Africa    Algeria Setif 24          192     S192          1     1
## # ... with 14,389 more rows, and 25 more variables: age <dbl>, religious <dbl>,
## #   religion <chr>, relstat <dbl>, relstat2 <dbl>, rellength <dbl>,
## #   ideal_intelligence <dbl>, ideal_kindness <dbl>, ideal_health <dbl>,
## #   ideal_physatt <dbl>, ideal_resources <dbl>, mate_age <dbl>, popsize <dbl>,
## #   country_religion <chr>, lattitude <dbl>, gem1995 <dbl>, gdi1995 <dbl>,
## #   gii <dbl>, gdi2015 <dbl>, gggi <dbl>, gdp_percap <dbl>, infect_death <dbl>,
## #   infect_yll <dbl>, cmc_yll <dbl>, gb_path <lgl>
…
